Mini Projects/Mohammed/02_Minor/Async_FIFO.vcd
$date
Mon Mar 25 11:52:21 2024
$end
$version
Riviera-PRO Version 2022.04.117.8517
$end
$timescale
1 ps
$end

$scope module Fifo_Top_tb $end
$var wire 8 ! rd_data [7:0] $end
$var wire 1 " o_fifo_full $end
$var wire 1 # o_fifo_empty $end
$var reg 1 $ wr_clk $end
$var reg 1 % rd_clk $end
$var reg 1 & wr_rst $end
$var reg 1 ' rd_rst $end
$var reg 1 ( wr_en $end
$var reg 1 ) rd_en $end
$var reg 8 * wr_data [7:0] $end

$scope module dut $end
$var wire 1 + wr_clk $end
$var wire 1 , rd_clk $end
$var wire 1 - wr_rst $end
$var wire 1 . rd_rst $end
$var wire 1 / wr_en $end
$var wire 1 0 rd_en $end
$var wire 8 1 wr_data [7:0] $end
$var wire 8 ! rd_data [7:0] $end
$var wire 1 " o_fifo_full $end
$var wire 1 # o_fifo_empty $end
$var wire 1 2 wr_EnDer $end
$var wire 8 3 wr_ptr [7:0] $end
$var wire 8 4 wr_ptrB2G [7:0] $end
$var wire 8 5 rd_ptrDualFlopSyncOut [7:0] $end
$var wire 8 6 rd_ptr [7:0] $end
$var wire 8 7 wr_ptrG2B [7:0] $end
$var wire 8 8 wr_ptrDualFlopSyncOut [7:0] $end
$var wire 8 9 rd_ptrB2G [7:0] $end
$var wire 8 : rd_ptrG2B [7:0] $end
$var parameter 32 ; S [31:0] $end

$scope module uutFifo_Memory $end
$var wire 1 + wr_clk $end
$var wire 1 , rd_clk $end
$var wire 8 3 wr_ptr [7:0] $end
$var wire 8 6 rd_ptr [7:0] $end
$var wire 1 2 wr_en $end
$var wire 1 0 rd_en $end
$var wire 8 1 wr_data [7:0] $end
$var reg 8 < rd_data [7:0] $end
$var parameter 32 = S [31:0] $end
$var parameter 8 > Depth [7:0] $end
$upscope $end


$scope module uutwrite_Unit $end
$var wire 1 + wr_clk $end
$var wire 1 / wr_en $end
$var wire 1 - wr_rst $end
$var wire 8 : rd_ptr [7:0] $end
$var wire 8 3 wr_ptr [7:0] $end
$var reg 1 ? fifo_full $end
$var reg 8 @ counter [7:0] $end
$var parameter 32 A S [31:0] $end
$var parameter 8 B Depth [7:0] $end
$upscope $end


$scope module uutread_Unit $end
$var wire 1 , rd_clk $end
$var wire 1 0 rd_en $end
$var wire 1 . rd_rst $end
$var wire 8 7 wr_ptr [7:0] $end
$var wire 8 6 rd_ptr [7:0] $end
$var reg 1 C fifo_empty $end
$var reg 8 D counter [7:0] $end
$var parameter 32 E S [31:0] $end
$var parameter 8 F Depth [7:0] $end
$upscope $end


$scope module uutBinary2GrayWrite $end
$var wire 8 3 bin_in [7:0] $end
$var wire 8 4 gray_out [7:0] $end
$var parameter 32 G S [31:0] $end

$scope begin xor_gate[6] $end
$var parameter 32 H i [31:0] $end
$upscope $end


$scope begin xor_gate[5] $end
$var parameter 32 I i [31:0] $end
$upscope $end


$scope begin xor_gate[4] $end
$var parameter 32 J i [31:0] $end
$upscope $end


$scope begin xor_gate[3] $end
$var parameter 32 K i [31:0] $end
$upscope $end


$scope begin xor_gate[2] $end
$var parameter 32 L i [31:0] $end
$upscope $end


$scope begin xor_gate[1] $end
$var parameter 32 M i [31:0] $end
$upscope $end


$scope begin xor_gate[0] $end
$var parameter 32 N i [31:0] $end
$upscope $end

$upscope $end


$scope module uutDual_flop_syncWrite $end
$var wire 1 , clk $end
$var wire 1 . rst $end
$var wire 8 4 data_in [7:0] $end
$var reg 8 O data_out [7:0] $end
$var reg 8 P Connection [7:0] $end
$var parameter 32 Q S [31:0] $end
$upscope $end


$scope module uutGray2BinaryWrite $end
$var wire 8 8 gray_in [7:0] $end
$var wire 8 7 bin_out [7:0] $end
$var parameter 32 R S [31:0] $end

$scope begin xor_gate[6] $end
$var parameter 32 S i [31:0] $end
$upscope $end


$scope begin xor_gate[5] $end
$var parameter 32 T i [31:0] $end
$upscope $end


$scope begin xor_gate[4] $end
$var parameter 32 U i [31:0] $end
$upscope $end


$scope begin xor_gate[3] $end
$var parameter 32 V i [31:0] $end
$upscope $end


$scope begin xor_gate[2] $end
$var parameter 32 W i [31:0] $end
$upscope $end


$scope begin xor_gate[1] $end
$var parameter 32 X i [31:0] $end
$upscope $end


$scope begin xor_gate[0] $end
$var parameter 32 Y i [31:0] $end
$upscope $end

$upscope $end


$scope module uutBinary2GrayRead $end
$var wire 8 6 bin_in [7:0] $end
$var wire 8 9 gray_out [7:0] $end
$var parameter 32 Z S [31:0] $end

$scope begin xor_gate[6] $end
$var parameter 32 [ i [31:0] $end
$upscope $end


$scope begin xor_gate[5] $end
$var parameter 32 \ i [31:0] $end
$upscope $end


$scope begin xor_gate[4] $end
$var parameter 32 ] i [31:0] $end
$upscope $end


$scope begin xor_gate[3] $end
$var parameter 32 ^ i [31:0] $end
$upscope $end


$scope begin xor_gate[2] $end
$var parameter 32 _ i [31:0] $end
$upscope $end


$scope begin xor_gate[1] $end
$var parameter 32 ` i [31:0] $end
$upscope $end


$scope begin xor_gate[0] $end
$var parameter 32 a i [31:0] $end
$upscope $end

$upscope $end


$scope module uutDual_flop_syncRead $end
$var wire 1 + clk $end
$var wire 1 - rst $end
$var wire 8 9 data_in [7:0] $end
$var reg 8 b data_out [7:0] $end
$var reg 8 c Connection [7:0] $end
$var parameter 32 d S [31:0] $end
$upscope $end


$scope module uutGray2BinaryRead $end
$var wire 8 5 gray_in [7:0] $end
$var wire 8 : bin_out [7:0] $end
$var parameter 32 e S [31:0] $end

$scope begin xor_gate[6] $end
$var parameter 32 f i [31:0] $end
$upscope $end


$scope begin xor_gate[5] $end
$var parameter 32 g i [31:0] $end
$upscope $end


$scope begin xor_gate[4] $end
$var parameter 32 h i [31:0] $end
$upscope $end


$scope begin xor_gate[3] $end
$var parameter 32 i i [31:0] $end
$upscope $end


$scope begin xor_gate[2] $end
$var parameter 32 j i [31:0] $end
$upscope $end


$scope begin xor_gate[1] $end
$var parameter 32 k i [31:0] $end
$upscope $end


$scope begin xor_gate[0] $end
$var parameter 32 l i [31:0] $end
$upscope $end

$upscope $end

$upscope $end


$scope task write_task $end
$upscope $end


$scope task read_task $end
$upscope $end


$scope task write_read_task $end
$upscope $end


$scope task @FORK#82_0@ $end
$upscope $end


$scope task @FORK#83_1@ $end
$upscope $end


$scope task @FORK#85_2@ $end
$upscope $end

$upscope $end

$enddefinitions $end
$dumpvars
bx !
0"
1#
1$
1%
1&
1'
0(
0)
b0 *
1+
1,
1-
1.
0/
00
b0 1
02
b0 3
b0 4
b0 5
b0 6
b0 7
b0 8
b0 9
b0 :
b1000 ;
bx <
b1000 =
b10010110 >
0?
b0 @
b1000 A
b10010110 B
1C
b0 D
b1000 E
b10010110 F
b1000 G
b110 H
b101 I
b100 J
b11 K
b10 L
b1 M
b0 N
b0 O
b0 P
b1000 Q
b1000 R
b110 S
b101 T
b100 U
b11 V
b10 W
b1 X
b0 Y
b1000 Z
b110 [
b101 \
b100 ]
b11 ^
b10 _
b1 `
b0 a
b0 b
b0 c
b1000 d
b1000 e
b110 f
b101 g
b100 h
b11 i
b10 j
b1 k
b0 l
$end
#2500000
0$
0+
#5000000
1$
1+
#7000000
0&
0-
#7500000
0$
0+
#10000000
0%
1$
1+
0,
#12500000
0$
0+
#15000000
1$
1+
#17000000
0'
b100100 *
1(
1/
b100100 1
0.
12
#17500000
0$
0+
#20000000
1%
1$
1+
1,
b1 @
b1 3
b1 4
#22500000
0$
0+
#25000000
1$
1+
b10 @
b10 3
b11 4
#27000000
b10000001 *
b10000001 1
#27500000
0$
0+
#30000000
0%
1$
1+
0,
b11 @
b11 3
b10 4
#32500000
0$
0+
#35000000
1$
1+
b100 @
b100 3
b110 4
#37000000
b1001 *
b1001 1
#37500000
0$
0+
#40000000
1%
1$
1+
1,
b101 @
b110 P
b101 3
b111 4
#42500000
0$
0+
#45000000
1$
1+
b110 @
b110 3
b101 4
#47000000
b1100011 *
b1100011 1
#47500000
0$
0+
#50000000
0%
1$
1+
0,
b111 @
b111 3
b100 4
#52500000
0$
0+
#55000000
1$
1+
b1000 @
b1000 3
b1100 4
#57000000
b1101 *
b1101 1
#57500000
0$
0+
#60000000
1%
1$
1+
1,
b1001 @
b1100 P
b110 O
b1001 3
b110 8
b110 7
b1101 4
b100 7
0C
0#
#62500000
0$
0+
#65000000
1$
1+
b1010 @
b1010 3
b1111 4
#67000000
1)
1(
b10001101 *
b10001101 1
10
#67500000
0$
0+
#70000000
0%
1$
1+
0,
b1011 @
b1011 3
b1110 4
#72500000
0$
0+
#75000000
1$
1+
b1100 @
b1100 3
b1010 4
#77000000
b1100101 *
b1100101 1
#77500000
0$
0+
#80000000
1%
1$
1+
1,
b1101 @
b100100 <
b1 D
b1010 P
b1100 O
b1 6
b1101 3
b1100 8
b100100 !
b1110 7
b1011 4
b1 9
b1011 7
b1001 7
b1000 7
#82500000
0$
0+
#85000000
1$
1+
b1110 @
b1 c
b1110 3
b1001 4
#87000000
b10010 *
b10010 1
#87500000
0$
0+
#90000000
0%
1$
1+
0,
b1111 @
b1 b
b1111 3
b1 5
b1 :
b1000 4
#92500000
0$
0+
#95000000
1$
1+
b10000 @
b10000 3
b11000 4
#97000000
1(
b1 *
b1 1
#97500000
0$
0+
#100000000
1%
1$
1+
1,
b10001 @
b10 D
b11000 P
b1010 O
b10 6
b10001 3
b1010 8
b1110 7
b11001 4
b11 9
b1100 7
#102500000
0$
0+
#105000000
1$
1+
b10010 @
b11 c
b10010 3
b11011 4
#107000000
b1101 *
b1101 1
#107500000
0$
0+
#110000000
0%
1$
1+
0,
b10011 @
b11 b
b10011 3
b11 5
b11 :
b11010 4
b10 :
#112500000
0$
0+
#115000000
1$
1+
b10100 @
b10100 3
b11110 4
#117000000
b1110110 *
b1110110 1
#117500000
0$
0+
#120000000
1%
1$
1+
1,
b10101 @
b10000001 <
b11 D
b11110 P
b11000 O
b11 6
b10101 3
b11000 8
b10000001 !
b11110 7
b11111 4
b10 9
b10111 7
b10011 7
b10001 7
b10000 7
#122500000
0$
0+
#125000000
1$
1+
b10110 @
b10 c
b10110 3
b11101 4
#127000000
1(
b111101 *
b111101 1
#127500000
0$
0+
#130000000
0%
1$
1+
0,
b10111 @
b10 b
b10111 3
b10 5
b11 :
b11100 4
#132500000
0$
0+
#135000000
1$
1+
b11000 @
b11000 3
b10100 4
#137000000
b11101101 *
b11101101 1
#137500000
0$
0+
#140000000
1%
1$
1+
1,
b11001 @
b100 D
b10100 P
b11110 O
b100 6
b11001 3
b11110 8
b10110 7
b10101 4
b110 9
b10100 7
#142500000
0$
0+
#145000000
1$
1+
b11010 @
b110 c
b11010 3
b10111 4
#147000000
b10001100 *
b10001100 1
#147500000
0$
0+
#150000000
0%
1$
1+
0,
b11011 @
b110 b
b11011 3
b110 5
b111 :
b10110 4
b101 :
b100 :
#152500000
0$
0+
#155000000
1$
1+
b11100 @
b11100 3
b10010 4
#157000000
1(
b11111001 *
b11111001 1
#157500000
0$
0+
#160000000
1%
1$
1+
1,
b11101 @
b1001 <
b101 D
b10010 P
b10100 O
b101 6
b11101 3
b10100 8
b1001 !
b11110 7
b10011 4
b111 9
b11011 7
b11001 7
b11000 7
#162500000
0$
0+
#165000000
1$
1+
b11110 @
b111 c
b11110 3
b10001 4
#167000000
b11000110 *
b11000110 1
#167500000
0$
0+
#170000000
0%
1$
1+
0,
b11111 @
b111 b
b11111 3
b111 5
b101 :
b10000 4
#172500000
0$
0+
#175000000
1$
1+
b100000 @
b100000 3
b110000 4
#177000000
b11000101 *
b11000101 1
#177500000
0$
0+
#180000000
1%
1$
1+
1,
b100001 @
b110 D
b110000 P
b10010 O
b110 6
b100001 3
b10010 8
b11110 7
b110001 4
b101 9
b11100 7
#182500000
0$
0+
#185000000
1$
1+
b100010 @
b101 c
b100010 3
b110011 4
#187000000
1(
b10101010 *
b10101010 1
#187500000
0$
0+
#190000000
0%
1$
1+
0,
b100011 @
b101 b
b100011 3
b101 5
b111 :
b110010 4
b110 :
#192500000
0$
0+
#195000000
1$
1+
b100100 @
b100100 3
b110110 4
#197000000
b11100101 *
b11100101 1
#197500000
0$
0+
#200000000
1%
1$
1+
1,
b100101 @
b1100011 <
b111 D
b110110 P
b110000 O
b111 6
b100101 3
b110000 8
b1100011 !
b111110 7
b110111 4
b100 9
b101111 7
b100111 7
b100011 7
b100001 7
b100000 7
#202500000
0$
0+
#205000000
1$
1+
b100110 @
b100 c
b100110 3
b110101 4
#207000000
b1110111 *
b1110111 1
#207500000
0$
0+
#210000000
0%
1$
1+
0,
b100111 @
b100 b
b100111 3
b100 5
b111 :
b110100 4
#212500000
0$
0+
#215000000
1$
1+
b101000 @
b101000 3
b111100 4
#217000000
1(
b10010 *
b10010 1
#217500000
0$
0+
#220000000
1%
1$
1+
1,
b101001 @
b1000 D
b111100 P
b110110 O
b1000 6
b101001 3
b110110 8
b100110 7
b111101 4
b1100 9
b100100 7
#222500000
0$
0+
#225000000
1$
1+
b101010 @
b1100 c
b101010 3
b111111 4
#227000000
b10001111 *
b10001111 1
#227500000
0$
0+
#230000000
0%
1$
1+
0,
b101011 @
b1100 b
b101011 3
b1100 5
b1111 :
b111110 4
b1011 :
b1001 :
b1000 :
#232500000
0$
0+
#235000000
1$
1+
b101100 @
b101100 3
b111010 4
#237000000
b11110010 *
b11110010 1
#237500000
0$
0+
#240000000
1%
1$
1+
1,
b101101 @
b1101 <
b1001 D
b111010 P
b111100 O
b1001 6
b101101 3
b111100 8
b1101 !
b101110 7
b111011 4
b1101 9
b101011 7
b101001 7
b101000 7
#242500000
0$
0+
#245000000
1$
1+
b101110 @
b1101 c
b101110 3
b111001 4
#247000000
1(
b11001110 *
b11001110 1
#247500000
0$
0+
#250000000
0%
1$
1+
0,
b101111 @
b1101 b
b101111 3
b1101 5
b1001 :
b111000 4
#252500000
0$
0+
#255000000
1$
1+
b110000 @
b110000 3
b101000 4
#257000000
b11101000 *
b11101000 1
#257500000
0$
0+
#260000000
1%
1$
1+
1,
b110001 @
b1010 D
b101000 P
b111010 O
b1010 6
b110001 3
b111010 8
b101110 7
b101001 4
b1111 9
b101100 7
#262500000
0$
0+
#265000000
1$
1+
b110010 @
b1111 c
b110010 3
b101011 4
#267000000
b11000101 *
b11000101 1
#267500000
0$
0+
#270000000
0%
1$
1+
0,
b110011 @
b1111 b
b110011 3
b1111 5
b1011 :
b101010 4
b1010 :
#272500000
0$
0+
#275000000
1$
1+
b110100 @
b110100 3
b101110 4
#277000000
1(
b1011100 *
b1011100 1
#277500000
0$
0+
#280000000
1%
1$
1+
1,
b110101 @
b10001101 <
b1011 D
b101110 P
b101000 O
b1011 6
b110101 3
b101000 8
b10001101 !
b111110 7
b101111 4
b1110 9
b110111 7
b110011 7
b110001 7
b110000 7
#282500000
0$
0+
#285000000
1$
1+
b110110 @
b1110 c
b110110 3
b101101 4
#287000000
b10111101 *
b10111101 1
#287500000
0$
0+
#290000000
0%
1$
1+
0,
b110111 @
b1110 b
b110111 3
b1110 5
b1011 :
b101100 4
#292500000
0$
0+
#295000000
1$
1+
b111000 @
b111000 3
b100100 4
#297000000
b101101 *
b101101 1
#297500000
0$
0+
#300000000
1%
1$
1+
1,
b111001 @
b1100 D
b100100 P
b101110 O
b1100 6
b111001 3
b101110 8
b110110 7
b100101 4
b1010 9
b110100 7
#302500000
0$
0+
#305000000
1$
1+
b111010 @
b1010 c
b111010 3
b100111 4
#307000000
1(
b1100101 *
b1100101 1
#307500000
0$
0+
#310000000
0%
1$
1+
0,
b111011 @
b1010 b
b111011 3
b1010 5
b1111 :
b100110 4
b1101 :
b1100 :
#312500000
0$
0+
#315000000
1$
1+
b111100 @
b111100 3
b100010 4
#317000000
b1100011 *
b1100011 1
#317500000
0$
0+
#320000000
1%
1$
1+
1,
b111101 @
b1100101 <
b1101 D
b100010 P
b100100 O
b1101 6
b111101 3
b100100 8
b1100101 !
b111110 7
b100011 4
b1011 9
b111011 7
b111001 7
b111000 7
#322500000
0$
0+
#325000000
1$
1+
b111110 @
b1011 c
b111110 3
b100001 4
#327000000
b1010 *
b1010 1
#327500000
0$
0+
#330000000
0%
1$
1+
0,
b111111 @
b1011 b
b111111 3
b1011 5
b1101 :
b100000 4
#332500000
0$
0+
#335000000
1$
1+
b1000000 @
b1000000 3
b1100000 4
#337000000
1(
b10000000 *
b10000000 1
#337500000
0$
0+
#340000000
1%
1$
1+
1,
b1000001 @
b1110 D
b1100000 P
b100010 O
b1110 6
b1000001 3
b100010 8
b111110 7
b1100001 4
b1001 9
b111100 7
#342500000
0$
0+
#345000000
1$
1+
b1000010 @
b1001 c
b1000010 3
b1100011 4
#347000000
b100000 *
b100000 1
#347500000
0$
0+
#350000000
0%
1$
1+
0,
b1000011 @
b1001 b
b1000011 3
b1001 5
b1111 :
b1100010 4
b1110 :
#352500000
0$
0+
#355000000
1$
1+
b1000100 @
b1000100 3
b1100110 4
#357000000
b10101010 *
b10101010 1
#357500000
0$
0+
#360000000
1%
1$
1+
1,
b1000101 @
b10010 <
b1111 D
b1100110 P
b1100000 O
b1111 6
b1000101 3
b1100000 8
b10010 !
b1111110 7
b1100111 4
b1000 9
b1011111 7
b1001111 7
b1000111 7
b1000011 7
b1000001 7
b1000000 7
#362500000
0$
0+
#365000000
1$
1+
b1000110 @
b1000 c
b1000110 3
b1100101 4
#367000000
1(
b10011101 *
b10011101 1
#367500000
0$
0+
#370000000
0%
1$
1+
0,
b1000111 @
b1000 b
b1000111 3
b1000 5
b1111 :
b1100100 4
#372500000
0$
0+
#375000000
1$
1+
b1001000 @
b1001000 3
b1101100 4
#377000000
b10010110 *
b10010110 1
#377500000
0$
0+
#380000000
1%
1$
1+
1,
b1001001 @
b10000 D
b1101100 P
b1100110 O
b10000 6
b1001001 3
b1100110 8
b1000110 7
b1101101 4
b11000 9
b1000100 7
#382500000
0$
0+
#385000000
1$
1+
b1001010 @
b11000 c
b1001010 3
b1101111 4
#387000000
b10011 *
b10011 1
#387500000
0$
0+
#390000000
0%
1$
1+
0,
b1001011 @
b11000 b
b1001011 3
b11000 5
b11111 :
b1101110 4
b10111 :
b10011 :
b10001 :
b10000 :
#392500000
0$
0+
#395000000
1$
1+
b1001100 @
b1001100 3
b1101010 4
#397000000
1(
b1101 *
b1101 1
#397500000
0$
0+
#400000000
1%
1$
1+
1,
b1001101 @
b1 <
b10001 D
b1101010 P
b1101100 O
b10001 6
b1001101 3
b1101100 8
b1 !
b1001110 7
b1101011 4
b11001 9
b1001011 7
b1001001 7
b1001000 7
#402500000
0$
0+
#405000000
1$
1+
b1001110 @
b11001 c
b1001110 3
b1101001 4
#407000000
b1010011 *
b1010011 1
#407500000
0$
0+
#410000000
0%
1$
1+
0,
b1001111 @
b11001 b
b1001111 3
b11001 5
b10001 :
b1101000 4
#412500000
0$
0+
#415000000
1$
1+
b1010000 @
b1010000 3
b1111000 4
#417000000
b1101011 *
b1101011 1
#417500000
0$
0+
#420000000
1%
1$
1+
1,
b1010001 @
b10010 D
b1111000 P
b1101010 O
b10010 6
b1010001 3
b1101010 8
b1001110 7
b1111001 4
b11011 9
b1001100 7
#422500000
0$
0+
#425000000
1$
1+
b1010010 @
b11011 c
b1010010 3
b1111011 4
#427000000
1(
b11010101 *
b11010101 1
#427500000
0$
0+
#430000000
0%
1$
1+
0,
b1010011 @
b11011 b
b1010011 3
b11011 5
b10011 :
b1111010 4
b10010 :
#432500000
0$
0+
#435000000
1$
1+
b1010100 @
b1010100 3
b1111110 4
#437000000
b10 *
b10 1
#437500000
0$
0+
#440000000
1%
1$
1+
1,
b1010101 @
b1101 <
b10011 D
b1111110 P
b1111000 O
b10011 6
b1010101 3
b1111000 8
b1101 !
b1011110 7
b1111111 4
b11010 9
b1010111 7
b1010011 7
b1010001 7
b1010000 7
#442500000
0$
0+
#445000000
1$
1+
b1010110 @
b11010 c
b1010110 3
b1111101 4
#447000000
b10101110 *
b10101110 1
#447500000
0$
0+
#450000000
0%
1$
1+
0,
b1010111 @
b11010 b
b1010111 3
b11010 5
b10011 :
b1111100 4
#452500000
0$
0+
#455000000
1$
1+
b1011000 @
b1011000 3
b1110100 4
#457000000
1(
b11101 *
b11101 1
#457500000
0$
0+
#460000000
1%
1$
1+
1,
b1011001 @
b10100 D
b1110100 P
b1111110 O
b10100 6
b1011001 3
b1111110 8
b1010110 7
b1110101 4
b11110 9
b1010100 7
#462500000
0$
0+
#465000000
1$
1+
b1011010 @
b11110 c
b1011010 3
b1110111 4
#467000000
b11001111 *
b11001111 1
#467500000
0$
0+
#470000000
0%
1$
1+
0,
b1011011 @
b11110 b
b1011011 3
b11110 5
b10111 :
b1110110 4
b10101 :
b10100 :
#472500000
0$
0+
#475000000
1$
1+
b1011100 @
b1011100 3
b1110010 4
#477000000
b100011 *
b100011 1
#477500000
0$
0+
#480000000
1%
1$
1+
1,
b1011101 @
b1110110 <
b10101 D
b1110010 P
b1110100 O
b10101 6
b1011101 3
b1110100 8
b1110110 !
b1011110 7
b1110011 4
b11111 9
b1011011 7
b1011001 7
b1011000 7
#482500000
0$
0+
#485000000
1$
1+
b1011110 @
b11111 c
b1011110 3
b1110001 4
#487000000
1(
b1010 *
b1010 1
#487500000
0$
0+
#490000000
0%
1$
1+
0,
b1011111 @
b11111 b
b1011111 3
b11111 5
b10101 :
b1110000 4
#492500000
0$
0+
#495000000
1$
1+
b1100000 @
b1100000 3
b1010000 4
#497000000
b11001010 *
b11001010 1
#497500000
0$
0+
#500000000
1%
1$
1+
1,
b1100001 @
b10110 D
b1010000 P
b1110010 O
b10110 6
b1100001 3
b1110010 8
b1011110 7
b1010001 4
b11101 9
b1011100 7
#502500000
0$
0+
#505000000
1$
1+
b1100010 @
b11101 c
b1100010 3
b1010011 4
#507000000
b111100 *
b111100 1
#507500000
0$
0+
#510000000
0%
1$
1+
0,
b1100011 @
b11101 b
b1100011 3
b11101 5
b10111 :
b1010010 4
b10110 :
#512500000
0$
0+
#515000000
1$
1+
b1100100 @
b1100100 3
b1010110 4
#517000000
b10001010 *
1(
b10001010 1
#517500000
0$
0+
#520000000
1%
1$
1+
1,
b1100101 @
b111101 <
b10111 D
b1010110 P
b1010000 O
b10111 6
b1100101 3
b1010000 8
b111101 !
b1111110 7
b1010111 4
b11100 9
b1101111 7
b1100111 7
b1100011 7
b1100001 7
b1100000 7
#522000000
b1000001 *
b1000001 1
#522500000
0$
0+
#525000000
1$
1+
b1100110 @
b11100 c
b1100110 3
b1010101 4
#527000000
b1111000 *
b1111000 1
#527500000
0$
0+
#530000000
0%
1$
1+
0,
b1100111 @
b11100 b
b1100111 3
b11100 5
b10111 :
b1010100 4
#532000000
b10001001 *
b10001001 1
#532500000
0$
0+
#535000000
1$
1+
b1101000 @
b1101000 3
b1011100 4
#537000000
b10110110 *
b10110110 1
#537500000
0$
0+
#540000000
1%
1$
1+
1,
b1101001 @
b11000 D
b1011100 P
b1010110 O
b11000 6
b1101001 3
b1010110 8
b1100110 7
b1011101 4
b10100 9
b1100100 7
#542000000
b11000110 *
b11000110 1
#542500000
0$
0+
#545000000
1$
1+
b1101010 @
b10100 c
b1101010 3
b1011111 4
#547000000
1(
b10111100 *
b10111100 1
#547500000
0$
0+
#550000000
0%
1$
1+
0,
b1101011 @
b10100 b
b1101011 3
b10100 5
b11111 :
b1011110 4
b11011 :
b11001 :
b11000 :
#552000000
b101010 *
b101010 1
#552500000
0$
0+
#555000000
1$
1+
b1101100 @
b1101100 3
b1011010 4
#557000000
b1110001 *
b1110001 1
#557500000
0$
0+
#560000000
1%
1$
1+
1,
b1101101 @
b11101101 <
b11001 D
b1011010 P
b1011100 O
b11001 6
b1101101 3
b1011100 8
b11101101 !
b1101110 7
b1011011 4
b10101 9
b1101011 7
b1101001 7
b1101000 7
#562000000
b10000101 *
b10000101 1
#562500000
0$
0+
#565000000
1$
1+
b1101110 @
b10101 c
b1101110 3
b1011001 4
#567000000
b111011 *
b111011 1
#567500000
0$
0+
#570000000
0%
1$
1+
0,
b1101111 @
b10101 b
b1101111 3
b10101 5
b11001 :
b1011000 4
#572000000
b111010 *
b111010 1
#572500000
0$
0+
#575000000
1$
1+
b1110000 @
b1110000 3
b1001000 4
#577000000
1(
b10101 *
b10101 1
#577500000
0$
0+
#580000000
1%
1$
1+
1,
b1110001 @
b11010 D
b1001000 P
b1011010 O
b11010 6
b1110001 3
b1011010 8
b1101110 7
b1001001 4
b10111 9
b1101100 7
#582000000
b11110001 *
b11110001 1
#582500000
0$
0+
#585000000
1$
1+
b1110010 @
b10111 c
b1110010 3
b1001011 4
#587000000
b1100010 *
b1100010 1
#587500000
0$
0+
#590000000
0%
1$
1+
0,
b1110011 @
b10111 b
b1110011 3
b10111 5
b11011 :
b1001010 4
b11010 :
#592000000
b1001100 *
b1001100 1
#592500000
0$
0+
#595000000
1$
1+
b1110100 @
b1110100 3
b1001110 4
#597000000
b10001111 *
b10001111 1
#597500000
0$
0+
#600000000
1%
1$
1+
1,
b1110101 @
b10001100 <
b11011 D
b1001110 P
b1001000 O
b11011 6
b1110101 3
b1001000 8
b10001100 !
b1111110 7
b1001111 4
b10110 9
b1110111 7
b1110011 7
b1110001 7
b1110000 7
#602000000
b11111000 *
b11111000 1
#602500000
0$
0+
#605000000
1$
1+
b1110110 @
b10110 c
b1110110 3
b1001101 4
#607000000
1(
b10011111 *
b10011111 1
#607500000
0$
0+
#610000000
0%
1$
1+
0,
b1110111 @
b10110 b
b1110111 3
b10110 5
b11011 :
b1001100 4
#612000000
b1011100 *
b1011100 1
#612500000
0$
0+
#615000000
1$
1+
b1111000 @
b1111000 3
b1000100 4
#617000000
b10001001 *
b10001001 1
#617500000
0$
0+
#620000000
1%
1$
1+
1,
b1111001 @
b11100 D
b1000100 P
b1001110 O
b11100 6
b1111001 3
b1001110 8
b1110110 7
b1000101 4
b10010 9
b1110100 7
#622000000
b1001001 *
b1001001 1
#622500000
0$
0+
#625000000
1$
1+
b1111010 @
b10010 c
b1111010 3
b1000111 4
#627000000
b11010111 *
b11010111 1
#627500000
0$
0+
#630000000
0%
1$
1+
0,
b1111011 @
b10010 b
b1111011 3
b10010 5
b11111 :
b1000110 4
b11101 :
b11100 :
#632000000
b1010001 *
b1010001 1
#632500000
0$
0+
#635000000
1$
1+
b1111100 @
b1111100 3
b1000010 4
#637000000
1(
b1100 *
b1100 1
#637500000
0$
0+
#640000000
1%
1$
1+
1,
b1111101 @
b11111001 <
b11101 D
b1000010 P
b1000100 O
b11101 6
b1111101 3
b1000100 8
b11111001 !
b1111110 7
b1000011 4
b10011 9
b1111011 7
b1111001 7
b1111000 7
#642000000
b11000010 *
b11000010 1
#642500000
0$
0+
#645000000
1$
1+
b1111110 @
b10011 c
b1111110 3
b1000001 4
#647000000
b1110111 *
b1110111 1
#647500000
0$
0+
#650000000
0%
1$
1+
0,
b1111111 @
b10011 b
b1111111 3
b10011 5
b11101 :
b1000000 4
#652000000
b111101 *
b111101 1
#652500000
0$
0+
#655000000
1$
1+
b0 @
b0 3
b0 4
#657000000
b1111110 *
b1111110 1
#657500000
0$
0+
#660000000
1%
1$
1+
1,
b1 @
b11110 D
b0 P
b1000010 O
b11110 6
b1 3
b1000010 8
b1111110 7
b1 4
b10001 9
b1111100 7
#662000000
b1101101 *
b1101101 1
#662500000
0$
0+
#665000000
1$
1+
b10 @
b10001 c
b10 3
b11 4
#667000000
1(
b11111 *
b11111 1
#667500000
0$
0+
#670000000
0%
1$
1+
0,
b11 @
b10001 b
b11 3
b10001 5
b11111 :
b10 4
b11110 :
#672000000
b11010011 *
b11010011 1
#672500000
0$
0+
#675000000
1$
1+
b100 @
b100 3
b110 4
#677000000
b1111000 *
b1111000 1
#677500000
0$
0+
#680000000
1%
1$
1+
1,
b101 @
b11000110 <
b11111 D
b110 P
b0 O
b11111 6
b101 3
b0 8
b11000110 !
b111110 7
b111 4
b10000 9
b11111 7
b1111 7
b111 7
b11 7
b1 7
b0 7
#682000000
b1011011 *
b1011011 1
#682500000
0$
0+
#685000000
1$
1+
b110 @
b10000 c
b110 3
b101 4
#687000000
b111111 *
b111111 1
#687500000
0$
0+
#690000000
0%
1$
1+
0,
b111 @
b10000 b
b111 3
b10000 5
b11111 :
b100 4
#692000000
b101010 *
b101010 1
#692500000
0$
0+
#695000000
1$
1+
b1000 @
b1000 3
b1100 4
#697000000
1(
b10000110 *
b10000110 1
#697500000
0$
0+
#700000000
1%
1$
1+
1,
b1001 @
b100000 D
b1100 P
b110 O
b100000 6
b1001 3
b110 8
b110 7
b1101 4
b110000 9
b100 7
#702000000
b10001110 *
b10001110 1
#702500000
0$
0+
#705000000
1$
1+
b1010 @
b110000 c
b1010 3
b1111 4
#707000000
b11111010 *
b11111010 1
#707500000
0$
0+
#710000000
0%
1$
1+
0,
b1011 @
b110000 b
b1011 3
b110000 5
b111111 :
b1110 4
b101111 :
b100111 :
b100011 :
b100001 :
b100000 :
#712000000
b100110 *
b100110 1
#712500000
0$
0+
#715000000
1$
1+
b1100 @
b1100 3
b1010 4
#717000000
b10100011 *
b10100011 1
#717500000
0$
0+
#720000000
1%
1$
1+
1,
b1101 @
b11000101 <
b100001 D
b1010 P
b1100 O
b100001 6
b1101 3
b1100 8
b11000101 !
b1110 7
b1011 4
b110001 9
b1011 7
b1001 7
b1000 7
#722000000
b101111 *
b101111 1
#722500000
0$
0+
#725000000
1$
1+
b1110 @
b110001 c
b1110 3
b1001 4
#727000000
1(
b1011111 *
b1011111 1
#727500000
0$
0+
#730000000
0%
1$
1+
0,
b1111 @
b110001 b
b1111 3
b110001 5
b100001 :
b1000 4
#732000000
b1000100 *
b1000100 1
#732500000
0$
0+
#735000000
1$
1+
b10000 @
b10000 3
b11000 4
#737000000
b11001011 *
b11001011 1
